fsm/systemc_programs/mod8_counter/traces.vcd
$date
     May 09, 2024       21:10:03
$end

$version
 SystemC 2.3.3-Accellera --- May  5 2024 01:42:09
$end

$timescale
     1 ps
$end

$scope module SystemC $end
$var wire    1  aaaaa  clk       $end
$var wire    1  aaaab  rst       $end
$var wire    4  aaaac  count [3:0]  $end
$upscope $end
$enddefinitions  $end

$comment
All initial values are dumped below at time 0 sec = 0 timescale units.
$end

$dumpvars
1aaaaa
0aaaab
b1 aaaac
$end

#1000
0aaaaa

#2000
1aaaaa
b10 aaaac

#3000
0aaaaa

#4000
1aaaaa
b11 aaaac

#5000
0aaaaa
1aaaab

#6000
1aaaaa
b0 aaaac

#7000
0aaaaa

#8000
1aaaaa

#9000
0aaaaa

#10000
1aaaaa
0aaaab
b1 aaaac

#11000
0aaaaa

#12000
1aaaaa
b10 aaaac

#13000
0aaaaa

#14000
1aaaaa
b11 aaaac

#15000
0aaaaa

#16000
1aaaaa
b100 aaaac

#17000
0aaaaa

#18000
1aaaaa
b101 aaaac

#19000
0aaaaa

#20000
1aaaaa
b110 aaaac

#21000
0aaaaa

#22000
1aaaaa
b111 aaaac

#23000
0aaaaa

#24000
1aaaaa
b0 aaaac

#25000
0aaaaa

#26000
1aaaaa
b1 aaaac

#27000
0aaaaa

#28000
1aaaaa
b10 aaaac

#29000
0aaaaa

#30000
1aaaaa
b11 aaaac

#31000
0aaaaa

#32000
1aaaaa
b100 aaaac

#33000
0aaaaa

#34000
1aaaaa
b101 aaaac

#35000
0aaaaa

#36000
1aaaaa
b110 aaaac

#37000
0aaaaa

#38000
1aaaaa
b111 aaaac

#39000
0aaaaa

#40000
1aaaaa
b0 aaaac

#41000
0aaaaa

#42000
1aaaaa
b1 aaaac

#43000
0aaaaa

#44000
1aaaaa
b10 aaaac

